<?xml version="1.0" encoding="utf-8"?>
<!-- Generator: Adobe Illustrator 23.0.4, SVG Export Plug-In . SVG Version: 6.00 Build 0)  -->
<svg version="1.1" id="Layer_1" xmlns="http://www.w3.org/2000/svg" xmlns:xlink="http://www.w3.org/1999/xlink" x="0px" y="0px"
	 viewBox="0 0 223 124.2" style="enable-background:new 0 0 223 124.2;" xml:space="preserve">
<style type="text/css">
	.st0{fill:none;stroke:#FFFFFF;stroke-width:5;stroke-linecap:round;stroke-miterlimit:10;}
</style>
<line class="st0" x1="8" y1="60.7" x2="216.6" y2="60.7"/>
<line class="st0" x1="159.3" y1="3" x2="216.6" y2="60.7"/>
<line class="st0" x1="158.6" y1="118.7" x2="216.6" y2="60.7"/>
</svg>
